# Mini-Project #03: Do Proportional Electoral College Allocations Yield a More Representative Presidency? – STA 9750 2024 Submission Material
…
[[1]]$district_winner_take_all
# A tibble: 6 × 2
  candidate             ECV
  <chr>               <dbl>
1 BIDEN, JOSEPH R. JR     0
2 Democrat             2328
3 MCCAIN, JOHN            0
4 OBAMA, BARACK H.        0
5 Republican           1929
6 TRUMP, DONALD J.        0

[[1]]$state_proportional_allocation
# A tibble: 203 × 2
   candidate                             ECV
   <chr>                               <dbl>
 1 "ALEXANDER, STEWART"                   38
 2 "ALLEN, JONATHAN"                       9
 3 "AMONDSON, GENE"                       38
 4 "ANDERSON, JOHN B."                   148
 5 "ANDERSON, ROSS CARL \"\"ROCKY\"\""    38
 6 "ANDERSON, THOMAS J."                  43
 7 "ANDRESS, STANFORD"                     9
 8 "ATWOOD, FRANK"                         9
 9 "BADNARIK, MICHAEL"                   139
10 "BAKER, GERALD"                         0
# ℹ 193 more rows

[[1]]$national_proportional_allocation
# A tibble: 203 × 2
   candidate                                  ECV
   <chr>                                    <dbl>
 1 "ALEXANDER, STEWART"                0.0000195 
 2 "ALLEN, JONATHAN"                   0.00000235
 3 "AMONDSON, GENE"                    0.00000950
 4 "ANDERSON, JOHN B."                 0.0378    
 5 "ANDERSON, ROSS CARL \"\"ROCKY\"\"" 0.0000467 
 6 "ANDERSON, THOMAS J."               0.000470  
 7 "ANDRESS, STANFORD"                 0.00000543
 8 "ATWOOD, FRANK"                     0.00000228
 9 "BADNARIK, MICHAEL"                 0.00274   
10 "BAKER, GERALD"                     0         
# ℹ 193 more rows
…
[[2]]$district_winner_take_all
# A tibble: 6 × 2
  candidate             ECV
  <chr>               <dbl>
1 BIDEN, JOSEPH R. JR     0
2 Democrat             2328
3 MCCAIN, JOHN            0
4 OBAMA, BARACK H.        0
5 Republican           1929
6 TRUMP, DONALD J.        0

[[2]]$state_proportional_allocation
# A tibble: 203 × 2
   candidate                             ECV
   <chr>                               <dbl>
 1 "ALEXANDER, STEWART"                   38
 2 "ALLEN, JONATHAN"                       9
 3 "AMONDSON, GENE"                       38
 4 "ANDERSON, JOHN B."                   148
 5 "ANDERSON, ROSS CARL \"\"ROCKY\"\""    38
 6 "ANDERSON, THOMAS J."                  43
 7 "ANDRESS, STANFORD"                     9
 8 "ATWOOD, FRANK"                         9
 9 "BADNARIK, MICHAEL"                   139
10 "BAKER, GERALD"                         0
# ℹ 193 more rows

[[2]]$national_proportional_allocation
# A tibble: 203 × 2
   candidate                                  ECV
   <chr>                                    <dbl>
 1 "ALEXANDER, STEWART"                0.0000195 
 2 "ALLEN, JONATHAN"                   0.00000235
 3 "AMONDSON, GENE"                    0.00000950
 4 "ANDERSON, JOHN B."                 0.0378    
 5 "ANDERSON, ROSS CARL \"\"ROCKY\"\"" 0.0000467 
 6 "ANDERSON, THOMAS J."               0.000470  
 7 "ANDRESS, STANFORD"                 0.00000543
 8 "ATWOOD, FRANK"                     0.00000228
 9 "BADNARIK, MICHAEL"                 0.00274   
10 "BAKER, GERALD"                     0         
# ℹ 193 more rows
…
[[3]]$district_winner_take_all
# A tibble: 6 × 2
  candidate             ECV
  <chr>               <dbl>
1 BIDEN, JOSEPH R. JR     0
2 Democrat             2328
3 MCCAIN, JOHN            0
4 OBAMA, BARACK H.        0
5 Republican           1929
6 TRUMP, DONALD J.        0

[[3]]$state_proportional_allocation
# A tibble: 203 × 2
   candidate                             ECV
   <chr>                               <dbl>
 1 "ALEXANDER, STEWART"                   38
 2 "ALLEN, JONATHAN"                       9
 3 "AMONDSON, GENE"                       38
 4 "ANDERSON, JOHN B."                   148
 5 "ANDERSON, ROSS CARL \"\"ROCKY\"\""    38
 6 "ANDERSON, THOMAS J."                  43
 7 "ANDRESS, STANFORD"                     9
 8 "ATWOOD, FRANK"                         9
 9 "BADNARIK, MICHAEL"                   139
10 "BAKER, GERALD"                         0
# ℹ 193 more rows

[[3]]$national_proportional_allocation
# A tibble: 203 × 2
   candidate                                  ECV
   <chr>                                    <dbl>
 1 "ALEXANDER, STEWART"                0.0000195 
 2 "ALLEN, JONATHAN"                   0.00000235
 3 "AMONDSON, GENE"                    0.00000950
 4 "ANDERSON, JOHN B."                 0.0378    
 5 "ANDERSON, ROSS CARL \"\"ROCKY\"\"" 0.0000467 
 6 "ANDERSON, THOMAS J."               0.000470  
 7 "ANDRESS, STANFORD"                 0.00000543
 8 "ATWOOD, FRANK"                     0.00000228
 9 "BADNARIK, MICHAEL"                 0.00274   
10 "BAKER, GERALD"                     0         
# ℹ 193 more rows
…
[[4]]$district_winner_take_all
# A tibble: 6 × 2
  candidate             ECV
  <chr>               <dbl>
1 BIDEN, JOSEPH R. JR     0
2 Democrat             2328
3 MCCAIN, JOHN            0
4 OBAMA, BARACK H.        0
5 Republican           1929
6 TRUMP, DONALD J.        0

[[4]]$state_proportional_allocation
# A tibble: 203 × 2
   candidate                             ECV
   <chr>                               <dbl>
 1 "ALEXANDER, STEWART"                   38
 2 "ALLEN, JONATHAN"                       9
 3 "AMONDSON, GENE"                       38
 4 "ANDERSON, JOHN B."                   148
 5 "ANDERSON, ROSS CARL \"\"ROCKY\"\""    38
 6 "ANDERSON, THOMAS J."                  43
 7 "ANDRESS, STANFORD"                     9
 8 "ATWOOD, FRANK"                         9
 9 "BADNARIK, MICHAEL"                   139
10 "BAKER, GERALD"                         0
# ℹ 193 more rows

[[4]]$national_proportional_allocation
# A tibble: 203 × 2
   candidate                                  ECV
   <chr>                                    <dbl>
 1 "ALEXANDER, STEWART"                0.0000195 
 2 "ALLEN, JONATHAN"                   0.00000235
 3 "AMONDSON, GENE"                    0.00000950
 4 "ANDERSON, JOHN B."                 0.0378    
 5 "ANDERSON, ROSS CARL \"\"ROCKY\"\"" 0.0000467 
 6 "ANDERSON, THOMAS J."               0.000470  
 7 "ANDRESS, STANFORD"                 0.00000543
 8 "ATWOOD, FRANK"                     0.00000228
 9 "BADNARIK, MICHAEL"                 0.00274   
10 "BAKER, GERALD"                     0         
# ℹ 193 more rows
…
[[5]]$district_winner_take_all
# A tibble: 6 × 2
  candidate             ECV
  <chr>               <dbl>
1 BIDEN, JOSEPH R. JR     0
2 Democrat             2328
3 MCCAIN, JOHN            0
4 OBAMA, BARACK H.        0
5 Republican           1929
6 TRUMP, DONALD J.        0

[[5]]$state_proportional_allocation
# A tibble: 203 × 2
   candidate                             ECV
   <chr>                               <dbl>
 1 "ALEXANDER, STEWART"                   38
 2 "ALLEN, JONATHAN"                       9
 3 "AMONDSON, GENE"                       38
 4 "ANDERSON, JOHN B."                   148
 5 "ANDERSON, ROSS CARL \"\"ROCKY\"\""    38
 6 "ANDERSON, THOMAS J."                  43
 7 "ANDRESS, STANFORD"                     9
 8 "ATWOOD, FRANK"                         9
 9 "BADNARIK, MICHAEL"                   139
10 "BAKER, GERALD"                         0
# ℹ 193 more rows

[[5]]$national_proportional_allocation
# A tibble: 203 × 2
   candidate                                  ECV
   <chr>                                    <dbl>
 1 "ALEXANDER, STEWART"                0.0000195 
 2 "ALLEN, JONATHAN"                   0.00000235
 3 "AMONDSON, GENE"                    0.00000950
 4 "ANDERSON, JOHN B."                 0.0378    
 5 "ANDERSON, ROSS CARL \"\"ROCKY\"\"" 0.0000467 
 6 "ANDERSON, THOMAS J."               0.000470  
 7 "ANDRESS, STANFORD"                 0.00000543
 8 "ATWOOD, FRANK"                     0.00000228
 9 "BADNARIK, MICHAEL"                 0.00274   
10 "BAKER, GERALD"                     0         
# ℹ 193 more rows
…
[[6]]$district_winner_take_all
# A tibble: 6 × 2
  candidate             ECV
  <chr>               <dbl>
1 BIDEN, JOSEPH R. JR     0
2 Democrat             2328
3 MCCAIN, JOHN            0
4 OBAMA, BARACK H.        0
5 Republican           1929
6 TRUMP, DONALD J.        0

[[6]]$state_proportional_allocation
# A tibble: 203 × 2
   candidate                             ECV
   <chr>                               <dbl>
 1 "ALEXANDER, STEWART"                   38
 2 "ALLEN, JONATHAN"                       9
 3 "AMONDSON, GENE"                       38
 4 "ANDERSON, JOHN B."                   148
 5 "ANDERSON, ROSS CARL \"\"ROCKY\"\""    38
 6 "ANDERSON, THOMAS J."                  43
 7 "ANDRESS, STANFORD"                     9
 8 "ATWOOD, FRANK"                         9
 9 "BADNARIK, MICHAEL"                   139
10 "BAKER, GERALD"                         0
# ℹ 193 more rows

[[6]]$national_proportional_allocation
# A tibble: 203 × 2
   candidate                                  ECV
   <chr>                                    <dbl>
 1 "ALEXANDER, STEWART"                0.0000195 
 2 "ALLEN, JONATHAN"                   0.00000235
 3 "AMONDSON, GENE"                    0.00000950
 4 "ANDERSON, JOHN B."                 0.0378    
 5 "ANDERSON, ROSS CARL \"\"ROCKY\"\"" 0.0000467 
 6 "ANDERSON, THOMAS J."               0.000470  
 7 "ANDRESS, STANFORD"                 0.00000543
 8 "ATWOOD, FRANK"                     0.00000228
 9 "BADNARIK, MICHAEL"                 0.00274   
10 "BAKER, GERALD"                     0         
# ℹ 193 more rows
