Mini-Project #04: Monte Carlo-Informed Selection of CUNY Retirement Plans – STA 9750 2024 Submission Material
…
Total Rows in Bond Yield Data (Monthly):  192 

Show the code

cat("Rows with Missing Bond Yield Data: ", sum(is.na(bond_df$bond_yield)), "\n")

Rows with Missing Bond Yield Data:  0 

Show the code

# Preview the Data
print(tail(bond_df,100))

# A tibble: 100 × 2
   date       bond_yield
   <date>          <dbl>
 1 2016-09-01       1.63
 2 2016-10-01       1.76
 3 2016-11-01       2.14
 4 2016-12-01       2.49
 5 2017-01-01       2.43
 6 2017-02-01       2.42
 7 2017-03-01       2.48
 8 2017-04-01       2.30
 9 2017-05-01       2.30
10 2017-06-01       2.19
# ℹ 90 more rows
…
